LSD/P/guiao3/simulation/qsim/AdderDemo.msim.vcd
$comment
	File created using the following command:
		vcd file AdderDemo.msim.vcd -direction
$end
$date
	Fri Mar  7 09:47:21 2025
$end
$version
	Questa Intel Starter FPGA Edition Version 2021.2
$end
$timescale
	1ps
$end

$scope module adder4_vhd_vec_tst $end
$var wire 1 ! a [3] $end
$var wire 1 " a [2] $end
$var wire 1 # a [1] $end
$var wire 1 $ a [0] $end
$var wire 1 % b [3] $end
$var wire 1 & b [2] $end
$var wire 1 ' b [1] $end
$var wire 1 ( b [0] $end
$var wire 1 ) cin $end
$var wire 1 * cout $end
$var wire 1 + s [3] $end
$var wire 1 , s [2] $end
$var wire 1 - s [1] $end
$var wire 1 . s [0] $end

$scope module i1 $end
$var wire 1 / gnd $end
$var wire 1 0 vcc $end
$var wire 1 1 unknown $end
$var wire 1 2 devoe $end
$var wire 1 3 devclrn $end
$var wire 1 4 devpor $end
$var wire 1 5 ww_devoe $end
$var wire 1 6 ww_devclrn $end
$var wire 1 7 ww_devpor $end
$var wire 1 8 ww_a [3] $end
$var wire 1 9 ww_a [2] $end
$var wire 1 : ww_a [1] $end
$var wire 1 ; ww_a [0] $end
$var wire 1 < ww_b [3] $end
$var wire 1 = ww_b [2] $end
$var wire 1 > ww_b [1] $end
$var wire 1 ? ww_b [0] $end
$var wire 1 @ ww_cin $end
$var wire 1 A ww_s [3] $end
$var wire 1 B ww_s [2] $end
$var wire 1 C ww_s [1] $end
$var wire 1 D ww_s [0] $end
$var wire 1 E ww_cout $end
$var wire 1 F \s[0]~output_o\ $end
$var wire 1 G \s[1]~output_o\ $end
$var wire 1 H \s[2]~output_o\ $end
$var wire 1 I \s[3]~output_o\ $end
$var wire 1 J \cout~output_o\ $end
$var wire 1 K \b[0]~input_o\ $end
$var wire 1 L \a[0]~input_o\ $end
$var wire 1 M \cin~input_o\ $end
$var wire 1 N \bit0|s~0_combout\ $end
$var wire 1 O \b[1]~input_o\ $end
$var wire 1 P \a[1]~input_o\ $end
$var wire 1 Q \bit0|cout~0_combout\ $end
$var wire 1 R \bit1|s~combout\ $end
$var wire 1 S \b[2]~input_o\ $end
$var wire 1 T \bit1|cout~0_combout\ $end
$var wire 1 U \a[2]~input_o\ $end
$var wire 1 V \bit2|s~combout\ $end
$var wire 1 W \a[3]~input_o\ $end
$var wire 1 X \b[3]~input_o\ $end
$var wire 1 Y \bit2|cout~0_combout\ $end
$var wire 1 Z \bit3|s~combout\ $end
$var wire 1 [ \bit3|cout~0_combout\ $end
$upscope $end
$upscope $end
$enddefinitions $end
#0
$dumpvars
0)
1*
0/
10
x1
12
13
14
15
16
17
0@
1E
1F
1G
1H
0I
1J
0K
1L
0M
1N
1O
0P
0Q
1R
0S
0T
1U
1V
1W
1X
0Y
0Z
1[
1!
1"
0#
1$
1%
0&
1'
0(
0+
1,
1-
1.
18
19
0:
1;
1<
0=
1>
0?
0A
1B
1C
1D
$end
#60000
0!
0"
1#
0%
1&
0'
1(
1)
1:
09
08
1?
0>
1=
0<
1@
1M
0X
1S
0O
1K
0W
0U
1P
0[
1Q
0R
1T
0V
1Y
0J
1Z
0E
0G
0*
0C
0H
0-
0B
1I
0,
1A
1+
#120000
1!
1"
0#
0&
1'
0(
0:
19
18
0?
1>
0=
0S
1O
0K
1W
1U
0P
0Z
1[
0N
0F
1J
0I
0D
1E
0A
0.
0+
1*
#180000
0!
0"
1&
1%
0$
0;
09
08
1=
1<
1X
1S
0W
0U
0L
1N
0Q
1R
0T
1V
0Y
1F
1Z
0[
1D
1G
1.
1C
1H
1-
1B
0J
1I
1,
0E
1A
0*
1+
#240000
0&
0%
1$
1#
0)
0=
0<
1;
1:
0@
0M
1P
1L
0X
0S
0V
0Z
0R
1T
1V
0G
0I
0H
0C
0A
0B
1H
0-
0,
0+
1B
1,
#300000
0#
1!
1"
0'
1(
0:
19
18
1?
0>
0O
1K
1W
1U
0P
0V
1Y
1Z
0N
1Q
0T
1V
0Y
1R
0Z
1[
1Z
0[
0F
1I
0H
0D
1A
0B
1J
0I
1G
1H
0.
0,
1+
1E
0A
1C
1B
0J
1I
1*
1-
1,
0+
0E
1A
0*
1+
#360000
1#
0$
0;
1:
1P
0L
1N
0Q
0R
1T
0V
1Y
1R
0T
1V
0Y
0Z
1[
0G
1F
1Z
0[
0C
1D
1G
0H
1.
0-
1C
0B
1J
0I
1H
1-
0,
1E
0A
1B
0J
1I
1*
1,
0+
0E
1A
0*
1+
#420000
1$
1'
0(
1%
1)
1;
0?
1>
1<
1@
1M
1X
1O
0K
1L
0R
1T
0Z
1[
0N
1Q
1R
0V
1Y
1Z
0F
1J
0I
0G
0D
1E
0A
0C
0H
1G
0.
0-
0+
1*
0B
1C
1I
1-
0,
1A
1+
#480000
1(
0%
0!
0"
1?
0<
09
08
0W
0U
0X
1K
1N
1V
0Y
0[
0Z
0J
1H
1F
0E
1B
1D
0I
0*
1.
1,
0A
0+
#540000
0(
1%
1!
1"
0$
0?
1<
0;
19
18
1W
1U
0L
1X
0K
0Q
0V
1Y
1[
1Z
0R
1J
0H
1E
0B
0G
1I
1*
0,
0C
1A
0-
1+
#600000
1(
0%
0)
0#
1&
1?
1=
0<
0@
0:
0P
0M
0X
1S
1K
1V
0Z
1R
0T
0V
1G
0I
1H
1C
0A
1B
0H
1-
1,
0+
0B
0,
#660000
0(
1#
0?
1:
1P
0K
0N
0R
1T
1V
0G
0F
0C
0D
1H
0.
0-
1B
1,
#720000
1(
0"
1$
1?
1;
09
0U
1L
1K
1Q
0V
1R
0H
0B
1G
0,
1C
1-
#780000
1"
0$
0#
1%
0&
0;
0:
19
0=
1<
1X
0S
1U
0P
0L
1N
0Q
0R
1Z
1R
0T
1V
0Y
1I
0G
1F
0Z
1A
0C
1D
1G
1.
0-
1+
1C
1H
1-
1B
0I
1,
0A
0+
#840000
0"
1$
1#
0%
1&
0(
1)
0!
0'
1;
1:
09
08
0?
0>
1=
0<
1@
1M
0X
1S
0O
0K
0W
0U
1P
1L
0[
0N
1Q
0R
1T
0V
1Y
0F
0J
1Z
0D
0E
0G
0.
0*
0C
0H
0-
0B
1I
0,
1A
1+
#900000
1"
0$
1%
0&
1(
1!
0;
19
18
1?
0=
1<
1X
0S
1K
1W
1U
0L
1[
1J
1E
1*
#960000
1&
0!
0#
1'
1>
1=
0:
08
0W
0P
1S
1O
1V
0Z
0I
1H
0A
1B
1,
0+
#980000
0)
0@
0M
1N
0Q
1R
0T
0V
1F
1D
1G
1.
1C
0H
1-
0B
0,
