ISD_projects/ISD/Teste Prático/TesteTreino2/TesteTreino2/simulation/qsim/MEF.msim.vcd
$comment
	File created using the following command:
		vcd file MEF.msim.vcd -direction
$end
$date
	Tue Jan 03 17:47:55 2023
$end
$version
	ModelSim Version 2020.1
$end
$timescale
	1ps
$end

$scope module mef_vhd_vec_tst $end
$var wire 1 ! CLK $end
$var wire 1 " Q [1] $end
$var wire 1 # Q [0] $end
$var wire 1 $ RESET_H $end
$var wire 1 % X $end
$var wire 1 & Y $end

$scope module i1 $end
$var wire 1 ' gnd $end
$var wire 1 ( vcc $end
$var wire 1 ) unknown $end
$var wire 1 * devoe $end
$var wire 1 + devclrn $end
$var wire 1 , devpor $end
$var wire 1 - ww_devoe $end
$var wire 1 . ww_devclrn $end
$var wire 1 / ww_devpor $end
$var wire 1 0 ww_Y $end
$var wire 1 1 ww_X $end
$var wire 1 2 ww_Q [1] $end
$var wire 1 3 ww_Q [0] $end
$var wire 1 4 ww_CLK $end
$var wire 1 5 ww_RESET_H $end
$var wire 1 6 \Y~output_o\ $end
$var wire 1 7 \Q[1]~output_o\ $end
$var wire 1 8 \Q[0]~output_o\ $end
$var wire 1 9 \CLK~input_o\ $end
$var wire 1 : \X~input_o\ $end
$var wire 1 ; \RESET_H~input_o\ $end
$var wire 1 < \AND_5~0_combout\ $end
$var wire 1 = \inst~q\ $end
$var wire 1 > \AND_4~0_combout\ $end
$var wire 1 ? \inst1~q\ $end
$var wire 1 @ \AND_6~combout\ $end
$upscope $end
$upscope $end
$enddefinitions $end
#0
$dumpvars
0!
0$
1%
0&
0'
1(
x)
1*
1+
1,
1-
1.
1/
00
11
04
05
06
07
08
09
1:
0;
1<
0=
0>
0?
0@
02
03
0"
0#
$end
#25000
1!
14
19
1=
0<
1>
18
13
1#
#50000
0!
04
09
#75000
1!
14
19
0=
1?
17
08
12
03
0#
1"
#100000
0!
04
09
#125000
1!
14
19
#150000
0!
0%
04
01
0:
09
1<
#175000
1!
14
19
1=
0<
0>
18
13
1#
#200000
0!
1%
04
11
1:
09
1<
1@
16
10
1&
#225000
1!
14
19
0?
0<
1>
0@
07
02
06
0"
00
0&
#250000
0!
0%
04
01
0:
09
0>
#275000
1!
14
19
0=
08
03
0#
#300000
0!
1%
04
11
1:
09
1<
#325000
1!
14
19
1=
0<
1>
18
13
1#
#350000
0!
04
09
#375000
1!
14
19
0=
1?
17
08
12
03
0#
1"
#400000
0!
0%
04
01
0:
09
1<
#420000
1$
15
1;
0<
0>
#425000
1!
14
19
0?
07
02
0"
#450000
0!
1%
04
11
1:
09
#475000
1!
14
19
#500000
0!
0%
04
01
0:
09
#525000
1!
14
19
#550000
0!
1%
04
11
1:
09
#575000
1!
14
19
#600000
0!
0%
04
01
0:
09
#625000
1!
14
19
#650000
0!
1%
04
11
1:
09
#675000
1!
14
19
#680000
0$
05
0;
1<
#700000
0!
04
09
#725000
1!
14
19
1=
0<
1>
18
13
1#
#750000
0!
0%
04
01
0:
09
0>
#775000
1!
14
19
0=
08
03
0#
#800000
0!
1%
04
11
1:
09
1<
#825000
1!
14
19
1=
0<
1>
18
13
1#
#850000
0!
0%
04
01
0:
09
0>
#875000
1!
14
19
0=
08
03
0#
#900000
0!
04
09
#925000
1!
14
19
#950000
0!
1%
04
11
1:
09
1<
#975000
1!
14
19
1=
0<
1>
18
13
1#
