ISD_projects/ISD/Teste 2/pratico/Nova pasta (4)/tentativa/tentativa/simulation/qsim/tentativa.msim.vcd
$comment
	File created using the following command:
		vcd file tentativa.msim.vcd -direction
$end
$date
	Thu Nov 24 10:44:18 2022
$end
$version
	ModelSim Version 2020.1
$end
$timescale
	1ps
$end

$scope module Mux8_1_vlg_vec_tst $end
$var reg 1 ! GN $end
$var reg 3 " S [2:0] $end
$var reg 8 # X [7:0] $end
$var wire 1 $ Out $end

$scope module i1 $end
$var wire 1 % gnd $end
$var wire 1 & vcc $end
$var wire 1 ' unknown $end
$var tri1 1 ( devclrn $end
$var tri1 1 ) devpor $end
$var tri1 1 * devoe $end
$var wire 1 + Out~output_o $end
$var wire 1 , X[5]~input_o $end
$var wire 1 - X[4]~input_o $end
$var wire 1 . S[0]~input_o $end
$var wire 1 / GN~input_o $end
$var wire 1 0 inst|24~0_combout $end
$var wire 1 1 S[2]~input_o $end
$var wire 1 2 X[3]~input_o $end
$var wire 1 3 X[2]~input_o $end
$var wire 1 4 inst|23~0_combout $end
$var wire 1 5 S[1]~input_o $end
$var wire 1 6 X[1]~input_o $end
$var wire 1 7 X[0]~input_o $end
$var wire 1 8 inst|22~0_combout $end
$var wire 1 9 mux_2_1_2|OR_1~0_combout $end
$var wire 1 : X[7]~input_o $end
$var wire 1 ; X[6]~input_o $end
$var wire 1 < inst|25~0_combout $end
$var wire 1 = mux_2_1_2|OR_1~1_combout $end
$upscope $end
$upscope $end
$enddefinitions $end
#0
$dumpvars
0!
b0 "
b0 #
0$
0%
1&
x'
1(
1)
1*
0+
0,
0-
0.
0/
00
01
02
03
04
05
06
07
08
09
0:
0;
0<
0=
$end
#25000
b1 #
17
18
19
1=
1+
1$
#50000
b11 #
b10 #
07
16
08
09
0=
0+
0$
#75000
b11 #
17
18
19
1=
1+
1$
#100000
b1 "
b111 #
b101 #
b100 #
07
06
13
1.
08
09
0=
0+
0$
#125000
b101 #
17
#150000
b111 #
b110 #
07
16
18
19
1=
1+
1$
#175000
b111 #
17
#200000
b11 "
b1111 #
b10 "
b1011 #
b1001 #
b1000 #
07
06
03
12
0.
15
08
09
0=
0+
0$
#225000
b1001 #
17
18
#250000
b1011 #
b1010 #
07
16
08
#275000
b1011 #
17
18
#300000
b11 "
b1111 #
b1101 #
b1100 #
07
06
13
1.
08
14
19
1=
1+
1$
#325000
b1101 #
17
#350000
b1111 #
b1110 #
07
16
18
#375000
b1111 #
17
#400000
b111 "
b11111 #
b101 "
b10111 #
b100 "
b10011 #
b10001 #
b10000 #
07
06
03
02
1-
0.
05
11
08
04
10
09
0=
0+
0$
1=
1+
1$
#425000
b10001 #
17
18
#450000
b10011 #
b10010 #
07
16
08
#475000
b10011 #
17
18
#500000
b101 "
b10111 #
b10101 #
b10100 #
07
06
13
1.
08
00
0=
0+
0$
#525000
b10101 #
17
#550000
b10111 #
b10110 #
07
16
18
#575000
b10111 #
17
#600000
b111 "
b11111 #
b110 "
b11011 #
b11001 #
b11000 #
07
06
03
12
0.
15
08
10
19
#625000
b11001 #
17
18
#650000
b11011 #
b11010 #
07
16
08
#675000
b11011 #
17
18
#700000
b111 "
b11111 #
b11101 #
b11100 #
07
06
13
1.
08
14
00
#725000
b11101 #
17
#750000
b11111 #
b11110 #
07
16
18
#775000
b11111 #
17
#800000
b111111 #
b11 "
b101111 #
b1 "
b100111 #
b0 "
b100011 #
b100001 #
b100000 #
0.
05
01
07
06
03
02
0-
1,
08
04
1=
1+
09
1$
0=
0+
0$
#825000
b100001 #
17
18
19
1=
1+
1$
#850000
b100011 #
b100010 #
07
16
08
09
0=
0+
0$
#875000
b100011 #
17
18
19
1=
1+
1$
#900000
b1 "
b100111 #
b100101 #
b100100 #
07
06
13
1.
08
10
09
0=
0+
0$
#925000
b100101 #
17
#950000
b100111 #
b100110 #
07
16
18
19
1=
1+
1$
#975000
b100111 #
17
