LSD/P/aula01_parte2/simulation/qsim/VHDLDemo.msim.vcd
$comment
	File created using the following command:
		vcd file VHDLDemo.msim.vcd -direction
$end
$date
	Fri Feb 14 11:33:53 2025
$end
$version
	Questa Intel Starter FPGA Edition Version 2021.2
$end
$timescale
	1ps
$end

$scope module vhdldemo_vhd_vec_tst $end
$var wire 1 ! inPort0 $end
$var wire 1 " inPort1 $end
$var wire 1 # outPort $end

$scope module i1 $end
$var wire 1 $ gnd $end
$var wire 1 % vcc $end
$var wire 1 & unknown $end
$var wire 1 ' devoe $end
$var wire 1 ( devclrn $end
$var wire 1 ) devpor $end
$var wire 1 * ww_devoe $end
$var wire 1 + ww_devclrn $end
$var wire 1 , ww_devpor $end
$var wire 1 - ww_inPort0 $end
$var wire 1 . ww_inPort1 $end
$var wire 1 / ww_outPort $end
$var wire 1 0 \outPort~output_o\ $end
$var wire 1 1 \inPort0~input_o\ $end
$var wire 1 2 \inPort1~input_o\ $end
$var wire 1 3 \outPort~0_combout\ $end
$upscope $end
$upscope $end
$enddefinitions $end
#0
$dumpvars
0!
0"
0#
0$
1%
x&
1'
1(
1)
1*
1+
1,
0-
0.
0/
00
01
02
03
$end
#40000
1"
1.
12
#60000
1!
1-
11
13
10
1/
1#
#140000
0"
0.
02
03
00
0/
0#
#240000
1"
1.
12
13
10
1/
1#
#360000
0"
0.
02
03
00
0/
0#
#380000
0!
0-
01
#440000
1"
1.
12
#500000
0"
0.
02
#540000
1"
1!
1.
1-
11
12
13
10
1/
1#
#740000
0"
0!
0.
0-
01
02
03
00
0/
0#
#800000
1!
1-
11
#880000
0!
0-
01
